dcarta.adb:25:22: expected type "key_s" defined at dcarta.ads:27
dcarta.adb:25:22: found type "Standard.Character"
dcarta.adb:32:14: "trie_tree" is undefined (more references follow)
dcarta.adb:34:29: "k" is undefined
dcarta.adb:34:32: "x" is undefined (more references follow)
dcarta.adb:35:10: ambiguous expression (cannot resolve "Put_Line")
dcarta.adb:35:10: possible interpretation at a-suteio.ads:55
dcarta.adb:35:10: possible interpretation at a-textio.ads:263
